%YAML 1.1
%TAG !u! tag:unity3d.com,2011:
--- !u!114 &11400000
MonoBehaviour:
  m_ObjectHideFlags: 0
  m_CorrespondingSourceObject: {fileID: 0}
  m_PrefabInstance: {fileID: 0}
  m_PrefabAsset: {fileID: 0}
  m_GameObject: {fileID: 0}
  m_Enabled: 1
  m_EditorHideFlags: 0
  m_Script: {fileID: 11500000, guid: 2f33cb0e37e42cf418f6073d570e5d3a, type: 3}
  m_Name: Revive
  m_EditorClassIdentifier: 
  name: Revive
  description: Revives a pokemon to 100 hp
  icon: {fileID: -381853196, guid: 892fcb8d7c2fee341bbce58f1c270765, type: 3}
  hpAmount: 100
  restoreMaxHP: 0
  ppAmount: 0
  restoreMaxPP: 0
  recoverAllStatus: 0
  revive: 1
  maxRevive: 0
