%YAML 1.1
%TAG !u! tag:unity3d.com,2011:
--- !u!114 &11400000
MonoBehaviour:
  m_ObjectHideFlags: 0
  m_CorrespondingSourceObject: {fileID: 0}
  m_PrefabInstance: {fileID: 0}
  m_PrefabAsset: {fileID: 0}
  m_GameObject: {fileID: 0}
  m_Enabled: 1
  m_EditorHideFlags: 0
  m_Script: {fileID: 11500000, guid: c48a10b66b499a14889e7b154db41881, type: 3}
  m_Name: Ember
  m_EditorClassIdentifier: 
  name: Ember
  description: 
  type: 2
  power: 50
  accuracy: 100
  pp: 15
  category: 1
  effects:
    boosts: []
  target: 0
