%YAML 1.1
%TAG !u! tag:unity3d.com,2011:
--- !u!114 &11400000
MonoBehaviour:
  m_ObjectHideFlags: 0
  m_CorrespondingSourceObject: {fileID: 0}
  m_PrefabInstance: {fileID: 0}
  m_PrefabAsset: {fileID: 0}
  m_GameObject: {fileID: 0}
  m_Enabled: 1
  m_EditorHideFlags: 0
  m_Script: {fileID: 11500000, guid: 8af398b22d47bdd45ae2ed67079d4561, type: 3}
  m_Name: Bulbasaur
  m_EditorClassIdentifier: 
  name: Bulbasaur
  description: 
  frontSprite: {fileID: 21300000, guid: 0f37bf3cf5680a64d863b5f155b2a597, type: 3}
  backSprite: {fileID: 21300000, guid: aacaae602a38f884ab9e02e43de3736d, type: 3}
  type1: 5
  type2: 6
  maxHP: 45
  attack: 49
  defense: 49
  spAttack: 65
  spDefense: 65
  speed: 45
  expYield: 64
  growthRate: 0
  catchRate: 255
  learnableMoves:
  - moveBase: {fileID: 11400000, guid: 85dce6be66098b6419c4a980bbb03c4a, type: 2}
    level: 1
  - moveBase: {fileID: 11400000, guid: 083c1576a07a7cb47b7819f1ca3f4a29, type: 2}
    level: 1
  - moveBase: {fileID: 11400000, guid: 9206cb66dc6836542829af383535444a, type: 2}
    level: 1
